{
    "prepare_queue": {
        "installed": [],
        "uninstalled": []
    },
    "config_munge": {
        "files": {}
    },
    "installed_plugins": {
        "cordova-plugin-camera": {
            "PACKAGE_NAME": "com.indocyber.absensi"
        },
        "cordova-plugin-compat": {
            "PACKAGE_NAME": "com.indocyber.absensi"
        },
        "cordova-plugin-device": {
            "PACKAGE_NAME": "com.indocyber.absensi"
        },
        "cordova-plugin-file": {
            "PACKAGE_NAME": "com.indocyber.absensi"
        },
        "cordova-plugin-geolocation": {
            "PACKAGE_NAME": "com.indocyber.absensi"
        },
        "cordova-plugin-media": {
            "PACKAGE_NAME": "com.indocyber.absensi"
        },
        "cordova-plugin-sim": {
            "PACKAGE_NAME": "com.indocyber.absensi"
        },
        "cordova-plugin-spinner-dialog": {
            "PACKAGE_NAME": "com.indocyber.absensi"
        },
        "cordova-plugin-splashscreen": {
            "PACKAGE_NAME": "com.indocyber.absensi"
        },
        "cordova-plugin-statusbar": {
            "PACKAGE_NAME": "com.indocyber.absensi"
        },
        "cordova-plugin-whitelist": {
            "PACKAGE_NAME": "com.indocyber.absensi"
        },
        "cordova.plugins.diagnostic": {
            "PACKAGE_NAME": "com.indocyber.absensi"
        }
    },
    "dependent_plugins": {}
}